{
	"async" : "1.5.2",
	"xmldom" : "0.1.22",
	"xpath" : "0.0.22",
	"xml2js" : "0.4.12",
	"elasticsearch": "10.1.3",
    "express": "4.13.4",
    "mongodb": "2.1.11",
    "superagent": "1.8.3",
    "superagent-as-promised": "4.0.0",
    "phantom": "2.1.11",
	"request": "2.79.0",
	"url" : "0.11.0"
}
