<?xml version="1.0" standalone="no"?>
<!DOCTYPE svg PUBLIC "-//W3C//DTD SVG 1.1//EN" "http://www.w3.org/Graphics/SVG/1.1/DTD/svg11.dtd" >
<svg xmlns="http://www.w3.org/2000/svg">
<metadata>Generated by IcoMoon</metadata>
<defs>
<font id="icomoon" horiz-adv-x="1024">
<font-face units-per-em="1024" ascent="960" descent="-64" />
<missing-glyph horiz-adv-x="1024" />
<glyph unicode="&#x20;" horiz-adv-x="512" d="" />
<glyph unicode="&#xe899;" glyph-name="align-left" d="M307.2 448l153.6-153.6v102.4h409.6v102.4h-409.6v102.4l-153.6-153.6zM204.8 857.6c-28.314 0-51.2-2.406-51.2-30.72v-757.76c0-28.211 22.886-30.72 51.2-30.72 28.262 0 51.2 2.509 51.2 30.72v757.76c0 28.314-22.938 30.72-51.2 30.72z" />
<glyph unicode="&#xe900;" glyph-name="menu" d="M839.68 499.2h-655.36c-28.262 0-30.72-22.886-30.72-51.2s2.458-51.2 30.72-51.2h655.36c28.262 0 30.72 22.886 30.72 51.2s-2.458 51.2-30.72 51.2zM839.68 294.4h-655.36c-28.262 0-30.72-22.886-30.72-51.2s2.458-51.2 30.72-51.2h655.36c28.262 0 30.72 22.886 30.72 51.2s-2.458 51.2-30.72 51.2zM184.32 601.6h655.36c28.262 0 30.72 22.886 30.72 51.2s-2.458 51.2-30.72 51.2h-655.36c-28.262 0-30.72-22.886-30.72-51.2s2.458-51.2 30.72-51.2z" />
<glyph unicode="&#xe901;" glyph-name="file" d="M657.664 874.667h-401.664c-47.061 0-85.333-38.315-85.333-85.333v-682.667c0-47.061 38.272-85.333 85.333-85.333h512c47.061 0 85.333 38.272 85.333 85.333v572.331l-195.669 195.669zM768.043 106.667h-512.043v682.667h341.333v-170.667h170.667l0.043-512zM341.333 490.667h256v-85.333h-256v85.333zM341.333 320h341.333v-85.333h-341.333v85.333z" />
<glyph unicode="&#xe902;" glyph-name="angle-right" horiz-adv-x="663" d="M612.993 456.605c0-8.74-3.361-16.471-10.084-23.193l-469.916-469.916c-6.723-6.723-14.454-10.084-23.193-10.084s-16.471 3.361-23.193 10.084l-50.42 50.42c-6.723 6.723-10.084 14.454-10.084 23.193s3.361 16.471 10.084 23.193l396.303 396.303-396.303 396.303c-6.723 6.723-10.084 14.454-10.084 23.193s3.361 16.471 10.084 23.193l50.42 50.42c6.723 6.723 14.454 10.084 23.193 10.084s16.471-3.361 23.193-10.084l469.916-469.916c6.723-6.723 10.084-14.454 10.084-23.193v0z" />
<glyph unicode="&#xe903;" glyph-name="angle-left" horiz-adv-x="585" d="M3.173 461.754c0 8.594 3.305 16.196 9.916 22.806l462.072 462.072c6.611 6.611 14.212 9.916 22.806 9.916s16.196-3.305 22.806-9.916l49.578-49.578c6.611-6.611 9.916-14.212 9.916-22.806s-3.305-16.196-9.916-22.806l-389.687-389.687 389.687-389.687c6.611-6.611 9.916-14.212 9.916-22.806s-3.305-16.196-9.916-22.806l-49.578-49.578c-6.611-6.611-14.212-9.916-22.806-9.916s-16.196 3.305-22.806 9.916l-462.072 462.072c-6.611 6.611-9.916 14.212-9.916 22.806v0z" />
<glyph unicode="&#xe904;" glyph-name="search" horiz-adv-x="956" d="M658.286 543.086c0 70.477-25.047 130.762-75.143 180.857s-110.381 75.143-180.857 75.143c-70.477 0-130.762-25.047-180.857-75.143s-75.143-110.381-75.143-180.857c0-70.477 25.047-130.762 75.143-180.857s110.381-75.143 180.857-75.143c70.477 0 130.762 25.047 180.857 75.143s75.143 110.381 75.143 180.857v0zM950.857 67.657c0-19.81-7.238-36.952-21.714-51.429s-31.619-21.714-51.429-21.714c-20.572 0-37.714 7.238-51.429 21.714l-196 195.429c-68.191-47.238-144.19-70.857-228-70.857-54.476 0-106.571 10.571-156.286 31.714s-92.571 49.714-128.571 85.714c-36 36-64.571 78.857-85.714 128.571s-31.714 101.809-31.714 156.286c0 54.476 10.571 106.571 31.714 156.286s49.714 92.571 85.714 128.571c36 36 78.857 64.571 128.571 85.714s101.809 31.714 156.286 31.714c54.476 0 106.571-10.571 156.286-31.714s92.571-49.714 128.571-85.714c36-36 64.571-78.857 85.714-128.571s31.714-101.809 31.714-156.286c0-83.81-23.619-159.809-70.857-228l196-196c14.095-14.095 21.143-31.238 21.143-51.429v0z" />
<glyph unicode="&#xe906;" glyph-name="download" d="M810.667 832h-597.333c-47.061 0-85.333-38.272-85.333-85.333v-597.333c0-47.061 38.272-85.333 85.333-85.333h597.333c47.061 0 85.333 38.272 85.333 85.333v597.333c0 47.061-38.272 85.333-85.333 85.333zM512 217.003l-200.832 200.875 60.331 60.331 97.835-97.877v281.003h85.333v-281.003l97.835 97.835 60.331-60.331-200.832-200.832z" />
<glyph unicode="&#xe909;" glyph-name="close" d="M883.499 759.168l-60.331 60.331-311.168-311.168-311.168 311.168-60.331-60.331 311.168-311.168-311.168-311.168 60.331-60.331 311.168 311.168 311.168-311.168 60.331 60.331-311.168 311.168z" />
</font></defs></svg>